branches:
refs/heads/master
refs/heads/origin
test file:
first line
commit messages:
first commit
initial checkin
DATADIR/work-dir/cvs-test-repo
DATADIR/work-dir/cvs-test-repo/git-a
DATADIR/work-dir/cvs-test-repo/git-a/.cvsps
DATADIR/work-dir/cvs-test-repo/git-a/HEAD
DATADIR/work-dir/cvs-test-repo/git-a/branches
DATADIR/work-dir/cvs-test-repo/git-a/config
DATADIR/work-dir/cvs-test-repo/git-a/description
DATADIR/work-dir/cvs-test-repo/git-a/hooks
DATADIR/work-dir/cvs-test-repo/git-a/info
DATADIR/work-dir/cvs-test-repo/git-a/info/exclude
DATADIR/work-dir/cvs-test-repo/git-a/info/refs
DATADIR/work-dir/cvs-test-repo/git-a/lorry-update-count
DATADIR/work-dir/cvs-test-repo/git-a/objects
DATADIR/work-dir/cvs-test-repo/git-a/objects/info
DATADIR/work-dir/cvs-test-repo/git-a/objects/info/packs
DATADIR/work-dir/cvs-test-repo/git-a/objects/pack
DATADIR/work-dir/cvs-test-repo/git-a/objects/pack/pack-file
DATADIR/work-dir/cvs-test-repo/git-a/objects/pack/pack-file
DATADIR/work-dir/cvs-test-repo/git-a/packed-refs
DATADIR/work-dir/cvs-test-repo/git-a/refs
DATADIR/work-dir/cvs-test-repo/git-a/refs/heads
DATADIR/work-dir/cvs-test-repo/git-a/refs/tags
